Melt the clck
…
---

## A new adjective `index_by()`

```r
elec_avg <- elec_ts %>% 
* index_by(datetime = floor_date(reading_datetime, "hour")) %>%
  summarise(avg_kwh = mean(general_supply_kwh)) %>% 
  print()
```

```
#> # A tsibble: 8,760 x 2 [1h] <UTC>
#>   datetime            avg_kwh
#>   <dttm>                <dbl>
#> 1 2013-01-01 00:00:00   0.251
#> 2 2013-01-01 01:00:00   0.221
#> 3 2013-01-01 02:00:00   0.196
#> 4 2013-01-01 03:00:00   0.182
#> # … with 8,756 more rows
```
…
